[Parallel1] 354, 354, 333, 0.365004 

[Parallel1] 354, 354, 333, 0.627724 

[Parallel1] 354, 354, 333, 0.604156 

[Parallel1] 354, 354, 333, 0.628267 

[Parallel1] 354, 354, 333, 0.340802 

[Parallel1] 354, 354, 333, 0.301086 

[Parallel1] 354, 354, 333, 0.302668 

[Parallel1] 354, 354, 333, 0.492812 

[Parallel1] 354, 354, 333, 0.619488 

[Parallel1] 354, 354, 333, 0.588068 

