[Parallel2] 354, 354, 333, 0.622654 

[Parallel2] 354, 354, 333, 0.287398 

[Parallel2] 354, 354, 333, 0.248645 

[Parallel2] 354, 354, 333, 0.264101 

[Parallel2] 354, 354, 333, 0.257914 

[Parallel2] 354, 354, 333, 0.270141 

[Parallel2] 354, 354, 333, 0.378017 

[Parallel2] 354, 354, 333, 0.325273 

[Parallel2] 354, 354, 333, 0.295572 

[Parallel2] 354, 354, 333, 0.289484 

