[Normal for] 354, 354, 333, 0.623407 

[Normal for] 354, 354, 333, 0.307357 

[Normal for] 354, 354, 333, 0.299742 

[Normal for] 354, 354, 333, 0.307180 

[Normal for] 354, 354, 333, 0.528821 

[Normal for] 354, 354, 333, 0.618438 

[Normal for] 354, 354, 333, 0.610080 

[Normal for] 354, 354, 333, 0.499438 

[Normal for] 354, 354, 333, 0.298868 

[Normal for] 354, 354, 333, 0.336795 

