[Normal for] 354, 354, 333, 0.150880 

[Normal for] 354, 354, 333, 0.145400 

[Normal for] 354, 354, 333, 0.177765 

[Normal for] 354, 354, 333, 0.152803 

[Normal for] 354, 354, 333, 0.209745 

[Normal for] 354, 354, 333, 0.283426 

[Normal for] 354, 354, 333, 0.273821 

[Normal for] 354, 354, 333, 0.278838 

[Normal for] 354, 354, 333, 0.218442 

[Normal for] 354, 354, 333, 0.135568 

