[Parallel1] 354, 354, 333, 0.138875 

[Parallel1] 354, 354, 333, 0.144979 

[Parallel1] 354, 354, 333, 0.140778 

[Parallel1] 354, 354, 333, 0.142350 

[Parallel1] 354, 354, 333, 0.140150 

[Parallel1] 354, 354, 333, 0.179172 

[Parallel1] 354, 354, 333, 0.279141 

[Parallel1] 354, 354, 333, 0.296714 

[Parallel1] 354, 354, 333, 0.279494 

[Parallel1] 354, 354, 333, 0.263829 

