[Parallel4] 354, 354, 333, 0.293560 

[Parallel4] 354, 354, 333, 0.142644 

[Parallel4] 354, 354, 333, 0.135853 

[Parallel4] 354, 354, 333, 0.143954 

[Parallel4] 354, 354, 333, 0.140095 

[Parallel4] 354, 354, 333, 0.149023 

[Parallel4] 354, 354, 333, 0.135996 

[Parallel4] 354, 354, 333, 0.139719 

[Parallel4] 354, 354, 333, 0.294346 

[Parallel4] 354, 354, 333, 0.319937 

